Bayesian regression
…
## Warning: Missing column names filled in: 'X1' [1]

## Parsed with column specification:
## cols(
##   .default = col_double(),
##   communityname = col_character(),
##   state = col_character()
## )

## See spec(...) for full column specifications.

data

## # A tibble: 2,215 x 109
##       X1 communityname state population householdsize racepctblack racePctWhite
##    <dbl> <chr>         <chr>      <dbl>         <dbl>        <dbl>        <dbl>
##  1     0 BerkeleyHeig~ NJ         11980          3.1          1.37         91.8
##  2     1 Marpletownsh~ PA         23123          2.82         0.8          95.6
##  3     2 Tigardcity    OR         29344          2.43         0.74         94.3
##  4     3 Gloversville~ NY         16656          2.4          1.7          97.4
##  5     4 Bemidjicity   MN         11245          2.76         0.53         89.2
##  6     5 Springfieldc~ MO        140494          2.45         2.51         95.6
##  7     6 Norwoodtown   MA         28700          2.6          1.6          96.6
##  8     7 Andersoncity  IN         59459          2.45        14.2          84.9
##  9     8 Fargocity     ND         74111          2.46         0.35         97.1
## 10     9 Wacocity      TX        103590          2.62        23.1          67.6
## # ... with 2,205 more rows, and 102 more variables: racePctAsian <dbl>,
## #   racePctHisp <dbl>, agePct12t21 <dbl>, agePct12t29 <dbl>, agePct16t24 <dbl>,
## #   agePct65up <dbl>, numbUrban <dbl>, pctUrban <dbl>, medIncome <dbl>,
## #   pctWWage <dbl>, pctWFarmSelf <dbl>, pctWInvInc <dbl>, pctWSocSec <dbl>,
## #   pctWPubAsst <dbl>, pctWRetire <dbl>, medFamInc <dbl>, perCapInc <dbl>,
## #   whitePerCap <dbl>, blackPerCap <dbl>, indianPerCap <dbl>,
## #   AsianPerCap <dbl>, OtherPerCap <dbl>, HispPerCap <dbl>, NumUnderPov <dbl>,
## #   PctPopUnderPov <dbl>, PctLess9thGrade <dbl>, PctNotHSGrad <dbl>,
## #   PctBSorMore <dbl>, PctUnemployed <dbl>, PctEmploy <dbl>, PctEmplManu <dbl>,
…
